&input
  megul = 71,  ! input from module CONGEN
  nfte  = 81,  ! Hamiltonian scratch unit
  icidg = 1,   ! 0 - do not diagonalize for parallel, 1 - do diagonalise Hamiltonian matrix for serial
  iexpc = 1,   ! prototype CI expansion flag - 1 for scattering calculation
  icitg = 1,   ! CI target flag - 1 = perform CI target contraction
  idiag = 2,   ! matrix element evaluation flag - 2 = do not evaluate pure target integrals
  nftg   = 26, ! CI target vectors switch - 0 = use scattering wavefunctions to generated (phase corrected) target wavefunctions
  ntgsym = 3,  ! number of target state symmetries (>1 in CAS calculations)
  mcont  = 1,   0,   3,  ! lambda value ('symmetry') of the continuum orbitals associated with each target state
  notgt  = 97,  148, 63, ! number of continuum orbitals associated with each target symmetry
  numtgt = 1,   1,   1,  ! number of target states for each symmetries
  ntgtf  = 1,   2,   3,  ! target state dataset on nftg
  ntgts  = 1,   1,   1,  ! target state index within ntgtf
  ukrmolp_ints = .true., ! commented out if you do not run UKRmol+ suite
/
&cinorn
  name = 'H₂O⁺ CI calculation - singlet B1',
  NPFLG(1) = 0, ! no Hamiltonian matrix elements printed
  NPFLG(2) = 0, ! print lowest 20 eigenvalues only
  nftw   = 25,  ! eigenvector output unit
  nciset = 2,   ! dataset on nftw
/
