         0.11987E+02          0.78751E+01
         0.12087E+02          0.72662E+01
         0.12187E+02          0.71854E+01
         0.12287E+02          0.71404E+01
         0.12387E+02          0.71243E+01
         0.12487E+02          0.72036E+01
         0.12587E+02          0.89249E+01
         0.12687E+02          0.81826E+01
         0.12787E+02          0.69114E+01
         0.12887E+02          0.74220E+01
         0.12987E+02          0.75132E+01
         0.13087E+02          0.52692E+01
         0.13187E+02          0.98569E+01
         0.13287E+02          0.72963E+01
         0.13387E+02          0.70692E+01
         0.13487E+02          0.61649E+01
         0.13587E+02          0.95792E+01
         0.13687E+02          0.93826E+01
         0.13787E+02          0.70109E+01
         0.13887E+02          0.80123E+01
         0.13987E+02          0.69886E+01
         0.14087E+02          0.76568E+01
         0.14187E+02          0.13487E+02
         0.14287E+02          0.68398E+01
         0.14387E+02          0.64468E+01
         0.14487E+02          0.14162E+02
         0.14587E+02          0.14274E+02
         0.14687E+02          0.14347E+02
         0.14787E+02          0.14396E+02
         0.14887E+02          0.14430E+02
         0.14987E+02          0.14452E+02
         0.15087E+02          0.14466E+02
         0.15187E+02          0.14473E+02
         0.15287E+02          0.14476E+02
         0.15387E+02          0.14480E+02
         0.15487E+02          0.14493E+02
         0.15587E+02          0.14535E+02
         0.15687E+02          0.14660E+02
         0.15787E+02          0.15030E+02
         0.15887E+02          0.15810E+02
         0.15987E+02          0.15374E+02
         0.16087E+02          0.14278E+02
         0.16187E+02          0.13283E+02
         0.16287E+02          0.15472E+02
         0.16387E+02          0.14220E+02
         0.16487E+02          0.13814E+02
         0.16587E+02          0.13468E+02
         0.16687E+02          0.13032E+02
         0.16787E+02          0.12160E+02
         0.16887E+02          0.33354E+02
         0.16987E+02          0.13500E+02
         0.17087E+02          0.11385E+02
         0.17187E+02          0.23272E+02
         0.17287E+02          0.15601E+02
         0.17387E+02          0.14626E+02
         0.17487E+02          0.13892E+02
         0.17587E+02          0.13175E+02
         0.17687E+02          0.11808E+02
         0.17787E+02          0.14615E+02
         0.17887E+02          0.59697E+02
         0.17987E+02          0.14257E+02
         0.18087E+02          0.11483E+02
         0.18187E+02          0.99086E+01
         0.18287E+02          0.11808E+02
         0.18387E+02          0.13332E+02
         0.18487E+02          0.11591E+02
         0.18587E+02          0.20148E+02
         0.18687E+02          0.12646E+02
         0.18787E+02          0.22652E+02
         0.18887E+02          0.22668E+02
         0.18987E+02          0.22683E+02
         0.19087E+02          0.22699E+02
         0.19187E+02          0.22715E+02
         0.19287E+02          0.22731E+02
         0.19387E+02          0.22746E+02
         0.19487E+02          0.22760E+02
         0.19587E+02          0.22774E+02
         0.19687E+02          0.22787E+02
         0.19787E+02          0.22798E+02
         0.19887E+02          0.22808E+02
         0.19987E+02          0.22816E+02
         0.20087E+02          0.22821E+02
         0.20187E+02          0.22824E+02
         0.20287E+02          0.22824E+02
         0.20387E+02          0.22821E+02
         0.20487E+02          0.22815E+02
         0.20587E+02          0.22805E+02
         0.20687E+02          0.22793E+02
         0.20787E+02          0.22778E+02
         0.20887E+02          0.22760E+02
         0.20987E+02          0.22738E+02
         0.21087E+02          0.22714E+02
         0.21187E+02          0.22688E+02
         0.21287E+02          0.22659E+02
         0.21387E+02          0.22628E+02
         0.21487E+02          0.22595E+02
         0.21587E+02          0.22559E+02
         0.21687E+02          0.22523E+02
         0.21787E+02          0.22484E+02
         0.21887E+02          0.22444E+02
         0.21987E+02          0.22403E+02
         0.22087E+02          0.22361E+02
         0.22187E+02          0.22318E+02
         0.22287E+02          0.22273E+02
         0.22387E+02          0.22228E+02
         0.22487E+02          0.22183E+02
         0.22587E+02          0.22136E+02
         0.22687E+02          0.22089E+02
         0.22787E+02          0.22041E+02
         0.22887E+02          0.21993E+02
         0.22987E+02          0.21944E+02
         0.23087E+02          0.21895E+02
         0.23187E+02          0.21845E+02
         0.23287E+02          0.21795E+02
         0.23387E+02          0.21744E+02
         0.23487E+02          0.21692E+02
         0.23587E+02          0.21641E+02
         0.23687E+02          0.21588E+02
         0.23787E+02          0.21535E+02
         0.23887E+02          0.21482E+02
         0.23987E+02          0.21428E+02
         0.24087E+02          0.21373E+02
         0.24187E+02          0.21317E+02
         0.24287E+02          0.21261E+02
         0.24387E+02          0.21205E+02
         0.24487E+02          0.21147E+02
         0.24587E+02          0.21089E+02
         0.24687E+02          0.21031E+02
         0.24787E+02          0.20971E+02
         0.24887E+02          0.20911E+02
         0.24987E+02          0.20850E+02
         0.25087E+02          0.20789E+02
         0.25187E+02          0.20727E+02
         0.25287E+02          0.20664E+02
         0.25387E+02          0.20601E+02
         0.25487E+02          0.20537E+02
         0.25587E+02          0.20473E+02
         0.25687E+02          0.20408E+02
         0.25787E+02          0.20343E+02
         0.25887E+02          0.20277E+02
         0.25987E+02          0.20211E+02
         0.26087E+02          0.20145E+02
         0.26187E+02          0.20078E+02
         0.26287E+02          0.20011E+02
         0.26387E+02          0.19943E+02
         0.26487E+02          0.19876E+02
         0.26587E+02          0.19808E+02
         0.26687E+02          0.19740E+02
         0.26787E+02          0.19672E+02
         0.26887E+02          0.19604E+02
         0.26987E+02          0.19536E+02
         0.27087E+02          0.19467E+02
         0.27187E+02          0.19399E+02
         0.27287E+02          0.19331E+02
         0.27387E+02          0.19263E+02
         0.27487E+02          0.19194E+02
         0.27587E+02          0.19126E+02
         0.27687E+02          0.19058E+02
         0.27787E+02          0.18990E+02
         0.27887E+02          0.18922E+02
         0.27987E+02          0.18855E+02
         0.28087E+02          0.18787E+02
         0.28187E+02          0.18719E+02
         0.28287E+02          0.18652E+02
         0.28387E+02          0.18585E+02
         0.28487E+02          0.18518E+02
         0.28587E+02          0.18451E+02
         0.28687E+02          0.18384E+02
         0.28787E+02          0.18317E+02
         0.28887E+02          0.18250E+02
         0.28987E+02          0.18184E+02
         0.29087E+02          0.18117E+02
         0.29187E+02          0.18051E+02
         0.29287E+02          0.17985E+02
         0.29387E+02          0.17919E+02
         0.29487E+02          0.17853E+02
         0.29587E+02          0.17787E+02
         0.29687E+02          0.17721E+02
         0.29787E+02          0.17655E+02
         0.29887E+02          0.17589E+02
         0.29987E+02          0.17524E+02
         0.30087E+02          0.17458E+02
         0.30187E+02          0.17393E+02
         0.30287E+02          0.17327E+02
         0.30387E+02          0.17262E+02
         0.30487E+02          0.17197E+02
         0.30587E+02          0.17131E+02
         0.30687E+02          0.17066E+02
         0.30787E+02          0.17001E+02
         0.30887E+02          0.16936E+02
         0.30987E+02          0.16871E+02
         0.31087E+02          0.16807E+02
         0.31187E+02          0.16742E+02
         0.31287E+02          0.16677E+02
         0.31387E+02          0.16613E+02
         0.31487E+02          0.16548E+02
         0.31587E+02          0.16484E+02
         0.31687E+02          0.16420E+02
         0.31787E+02          0.16356E+02
         0.31887E+02          0.16292E+02
         0.31987E+02          0.16228E+02
         0.32087E+02          0.16165E+02
         0.32187E+02          0.16101E+02
         0.32287E+02          0.16038E+02
         0.32387E+02          0.15975E+02
         0.32487E+02          0.15912E+02
         0.32587E+02          0.15849E+02
         0.32687E+02          0.15787E+02
         0.32787E+02          0.15724E+02
         0.32887E+02          0.15662E+02
         0.32987E+02          0.15600E+02
         0.33087E+02          0.15539E+02
         0.33187E+02          0.15477E+02
         0.33287E+02          0.15416E+02
         0.33387E+02          0.15355E+02
         0.33487E+02          0.15294E+02
         0.33587E+02          0.15234E+02
         0.33687E+02          0.15174E+02
         0.33787E+02          0.15114E+02
         0.33887E+02          0.15054E+02
         0.33987E+02          0.14994E+02
         0.34087E+02          0.14935E+02
         0.34187E+02          0.14876E+02
         0.34287E+02          0.14818E+02
         0.34387E+02          0.14759E+02
         0.34487E+02          0.14701E+02
         0.34587E+02          0.14643E+02
         0.34687E+02          0.14586E+02
         0.34787E+02          0.14528E+02
         0.34887E+02          0.14471E+02
         0.34987E+02          0.14414E+02
         0.35087E+02          0.14358E+02
         0.35187E+02          0.14302E+02
         0.35287E+02          0.14246E+02
         0.35387E+02          0.14190E+02
         0.35487E+02          0.14134E+02
         0.35587E+02          0.14079E+02
         0.35687E+02          0.14024E+02
         0.35787E+02          0.13969E+02
         0.35887E+02          0.13915E+02
         0.35987E+02          0.13860E+02
         0.36087E+02          0.13806E+02
         0.36187E+02          0.13753E+02
         0.36287E+02          0.13699E+02
         0.36387E+02          0.13646E+02
         0.36487E+02          0.13592E+02
         0.36587E+02          0.13540E+02
         0.36687E+02          0.13487E+02
         0.36787E+02          0.13434E+02
         0.36887E+02          0.13382E+02
         0.36987E+02          0.13330E+02
         0.37087E+02          0.13278E+02
         0.37187E+02          0.13227E+02
         0.37287E+02          0.13175E+02
         0.37387E+02          0.13124E+02
         0.37487E+02          0.13073E+02
         0.37587E+02          0.13022E+02
         0.37687E+02          0.12972E+02
         0.37787E+02          0.12921E+02
         0.37887E+02          0.12871E+02
         0.37987E+02          0.12821E+02
         0.38087E+02          0.12771E+02
         0.38187E+02          0.12722E+02
         0.38287E+02          0.12672E+02
         0.38387E+02          0.12623E+02
         0.38487E+02          0.12574E+02
         0.38587E+02          0.12525E+02
         0.38687E+02          0.12477E+02
         0.38787E+02          0.12428E+02
         0.38887E+02          0.12380E+02
         0.38987E+02          0.12332E+02
         0.39087E+02          0.12284E+02
         0.39187E+02          0.12237E+02
         0.39287E+02          0.12189E+02
         0.39387E+02          0.12142E+02
         0.39487E+02          0.12095E+02
         0.39587E+02          0.12048E+02
         0.39687E+02          0.12002E+02
         0.39787E+02          0.11955E+02
         0.39887E+02          0.11909E+02
         0.39987E+02          0.11863E+02
         0.40087E+02          0.11817E+02
         0.40187E+02          0.11772E+02
         0.40287E+02          0.11727E+02
         0.40387E+02          0.11681E+02
         0.40487E+02          0.11636E+02
         0.40587E+02          0.11592E+02
         0.40687E+02          0.11547E+02
         0.40787E+02          0.11503E+02
         0.40887E+02          0.11459E+02
         0.40987E+02          0.11415E+02
         0.41087E+02          0.11372E+02
         0.41187E+02          0.11328E+02
         0.41287E+02          0.11285E+02
         0.41387E+02          0.11242E+02
         0.41487E+02          0.11199E+02
         0.41587E+02          0.11157E+02
         0.41687E+02          0.11114E+02
         0.41787E+02          0.11072E+02
         0.41887E+02          0.11030E+02
         0.41987E+02          0.10988E+02
         0.42087E+02          0.10947E+02
         0.42187E+02          0.10905E+02
         0.42287E+02          0.10864E+02
         0.42387E+02          0.10823E+02
         0.42487E+02          0.10783E+02
         0.42587E+02          0.10742E+02
         0.42687E+02          0.10702E+02
         0.42787E+02          0.10662E+02
         0.42887E+02          0.10622E+02
         0.42987E+02          0.10582E+02
         0.43087E+02          0.10543E+02
         0.43187E+02          0.10503E+02
         0.43287E+02          0.10464E+02
         0.43387E+02          0.10425E+02
         0.43487E+02          0.10387E+02
         0.43587E+02          0.10348E+02
         0.43687E+02          0.10310E+02
         0.43787E+02          0.10272E+02
         0.43887E+02          0.10234E+02
         0.43987E+02          0.10196E+02
         0.44087E+02          0.10158E+02
         0.44187E+02          0.10121E+02
         0.44287E+02          0.10084E+02
         0.44387E+02          0.10046E+02
         0.44487E+02          0.10010E+02
         0.44587E+02          0.99728E+01
         0.44687E+02          0.99362E+01
         0.44787E+02          0.98998E+01
         0.44887E+02          0.98636E+01
         0.44987E+02          0.98275E+01
         0.45087E+02          0.97916E+01
         0.45187E+02          0.97559E+01
         0.45287E+02          0.97203E+01
         0.45387E+02          0.96849E+01
         0.45487E+02          0.96497E+01
         0.45587E+02          0.96146E+01
         0.45687E+02          0.95796E+01
         0.45787E+02          0.95449E+01
         0.45887E+02          0.95102E+01
         0.45987E+02          0.94758E+01
         0.46087E+02          0.94415E+01
         0.46187E+02          0.94073E+01
         0.46287E+02          0.93733E+01
         0.46387E+02          0.93395E+01
         0.46487E+02          0.93058E+01
         0.46587E+02          0.92722E+01
         0.46687E+02          0.92388E+01
         0.46787E+02          0.92056E+01
         0.46887E+02          0.91724E+01
         0.46987E+02          0.91395E+01
         0.47087E+02          0.91067E+01
         0.47187E+02          0.90740E+01
         0.47287E+02          0.90415E+01
         0.47387E+02          0.90091E+01
         0.47487E+02          0.89769E+01
         0.47587E+02          0.89448E+01
         0.47687E+02          0.89129E+01
         0.47787E+02          0.88811E+01
         0.47887E+02          0.88494E+01
         0.47987E+02          0.88179E+01
         0.48087E+02          0.87865E+01
         0.48187E+02          0.87553E+01
         0.48287E+02          0.87242E+01
         0.48387E+02          0.86933E+01
         0.48487E+02          0.86625E+01
         0.48587E+02          0.86318E+01
         0.48687E+02          0.86013E+01
         0.48787E+02          0.85709E+01
         0.48887E+02          0.85407E+01
         0.48987E+02          0.85106E+01
         0.49087E+02          0.84806E+01
         0.49187E+02          0.84508E+01
         0.49287E+02          0.84211E+01
         0.49387E+02          0.83916E+01
         0.49487E+02          0.83622E+01
         0.49587E+02          0.83329E+01
         0.49687E+02          0.83038E+01
         0.49787E+02          0.82748E+01
         0.49887E+02          0.82459E+01
         0.49987E+02          0.82172E+01
         0.50087E+02          0.81886E+01
         0.50187E+02          0.81602E+01
         0.50287E+02          0.81319E+01
         0.50387E+02          0.81037E+01
         0.50487E+02          0.80757E+01
         0.50587E+02          0.80478E+01
         0.50687E+02          0.80200E+01
         0.50787E+02          0.79923E+01
         0.50887E+02          0.79648E+01
         0.50987E+02          0.79374E+01
         0.51087E+02          0.79102E+01
         0.51187E+02          0.78831E+01
         0.51287E+02          0.78561E+01
         0.51387E+02          0.78292E+01
         0.51487E+02          0.78025E+01
         0.51587E+02          0.77759E+01
         0.51687E+02          0.77494E+01
         0.51787E+02          0.77230E+01
         0.51887E+02          0.76968E+01
         0.51987E+02          0.76707E+01
         0.52087E+02          0.76447E+01
         0.52187E+02          0.76189E+01
         0.52287E+02          0.75931E+01
         0.52387E+02          0.75675E+01
         0.52487E+02          0.75420E+01
         0.52587E+02          0.75166E+01
         0.52687E+02          0.74914E+01
         0.52787E+02          0.74663E+01
         0.52887E+02          0.74412E+01
         0.52987E+02          0.74163E+01
         0.53087E+02          0.73916E+01
         0.53187E+02          0.73669E+01
         0.53287E+02          0.73423E+01
         0.53387E+02          0.73179E+01
         0.53487E+02          0.72936E+01
         0.53587E+02          0.72693E+01
         0.53687E+02          0.72452E+01
         0.53787E+02          0.72212E+01
         0.53887E+02          0.71974E+01
         0.53987E+02          0.71736E+01
         0.54087E+02          0.71499E+01
         0.54187E+02          0.71263E+01
         0.54287E+02          0.71029E+01
         0.54387E+02          0.70795E+01
         0.54487E+02          0.70563E+01
         0.54587E+02          0.70332E+01
         0.54687E+02          0.70101E+01
         0.54787E+02          0.69872E+01
         0.54887E+02          0.69643E+01
         0.54987E+02          0.69416E+01
         0.55087E+02          0.69190E+01
         0.55187E+02          0.68964E+01
         0.55287E+02          0.68740E+01
         0.55387E+02          0.68517E+01
         0.55487E+02          0.68294E+01
         0.55587E+02          0.68073E+01
         0.55687E+02          0.67852E+01
         0.55787E+02          0.67633E+01
         0.55887E+02          0.67414E+01
         0.55987E+02          0.67197E+01
         0.56087E+02          0.66980E+01
         0.56187E+02          0.66764E+01
         0.56287E+02          0.66549E+01
         0.56387E+02          0.66335E+01
         0.56487E+02          0.66122E+01
         0.56587E+02          0.65910E+01
         0.56687E+02          0.65699E+01
         0.56787E+02          0.65488E+01
         0.56887E+02          0.65279E+01
         0.56987E+02          0.65070E+01
         0.57087E+02          0.64863E+01
         0.57187E+02          0.64656E+01
         0.57287E+02          0.64450E+01
         0.57387E+02          0.64245E+01
         0.57487E+02          0.64040E+01
         0.57587E+02          0.63837E+01
         0.57687E+02          0.63634E+01
         0.57787E+02          0.63433E+01
         0.57887E+02          0.63232E+01
         0.57987E+02          0.63032E+01
         0.58087E+02          0.62832E+01
         0.58187E+02          0.62634E+01
         0.58287E+02          0.62436E+01
         0.58387E+02          0.62239E+01
         0.58487E+02          0.62043E+01
         0.58587E+02          0.61848E+01
         0.58687E+02          0.61654E+01
         0.58787E+02          0.61460E+01
         0.58887E+02          0.61268E+01
         0.58987E+02          0.61076E+01
         0.59087E+02          0.60884E+01
         0.59187E+02          0.60694E+01
         0.59287E+02          0.60504E+01
         0.59387E+02          0.60315E+01
         0.59487E+02          0.60127E+01
         0.59587E+02          0.59940E+01
         0.59687E+02          0.59753E+01
         0.59787E+02          0.59568E+01
         0.59887E+02          0.59383E+01
         0.59987E+02          0.59198E+01
         0.60087E+02          0.59015E+01
         0.60187E+02          0.58832E+01
         0.60287E+02          0.58650E+01
         0.60387E+02          0.58469E+01
         0.60487E+02          0.58288E+01
         0.60587E+02          0.58108E+01
         0.60687E+02          0.57929E+01
         0.60787E+02          0.57751E+01
         0.60887E+02          0.57573E+01
         0.60987E+02          0.57396E+01
         0.61087E+02          0.57220E+01
         0.61187E+02          0.57045E+01
         0.61287E+02          0.56870E+01
         0.61387E+02          0.56696E+01
         0.61488E+02          0.56523E+01
         0.61588E+02          0.56350E+01
         0.61688E+02          0.56178E+01
         0.61788E+02          0.56007E+01
         0.61888E+02          0.55836E+01
         0.61988E+02          0.55666E+01
         0.62088E+02          0.55497E+01
         0.62188E+02          0.55329E+01
         0.62288E+02          0.55161E+01
         0.62388E+02          0.54994E+01
         0.62488E+02          0.54828E+01
         0.62588E+02          0.54662E+01
         0.62688E+02          0.54497E+01
         0.62788E+02          0.54332E+01
         0.62888E+02          0.54169E+01
         0.62988E+02          0.54005E+01
         0.63088E+02          0.53843E+01
         0.63188E+02          0.53681E+01
         0.63288E+02          0.53520E+01
         0.63388E+02          0.53360E+01
         0.63488E+02          0.53200E+01
         0.63588E+02          0.53041E+01
         0.63688E+02          0.52882E+01
         0.63788E+02          0.52724E+01
         0.63888E+02          0.52567E+01
         0.63988E+02          0.52410E+01
         0.64088E+02          0.52254E+01
         0.64188E+02          0.52099E+01
         0.64288E+02          0.51944E+01
         0.64388E+02          0.51790E+01
         0.64488E+02          0.51636E+01
         0.64588E+02          0.51483E+01
         0.64688E+02          0.51330E+01
         0.64788E+02          0.51179E+01
         0.64888E+02          0.51027E+01
         0.64988E+02          0.50877E+01
         0.65088E+02          0.50727E+01
         0.65188E+02          0.50577E+01
         0.65288E+02          0.50428E+01
         0.65388E+02          0.50280E+01
         0.65488E+02          0.50132E+01
         0.65588E+02          0.49985E+01
         0.65688E+02          0.49839E+01
         0.65788E+02          0.49693E+01
         0.65888E+02          0.49547E+01
         0.65988E+02          0.49402E+01
         0.66088E+02          0.49258E+01
         0.66188E+02          0.49114E+01
         0.66288E+02          0.48971E+01
         0.66388E+02          0.48828E+01
         0.66488E+02          0.48686E+01
         0.66588E+02          0.48544E+01
         0.66688E+02          0.48403E+01
         0.66788E+02          0.48262E+01
         0.66888E+02          0.48122E+01
         0.66988E+02          0.47982E+01
         0.67088E+02          0.47843E+01
         0.67188E+02          0.47705E+01
         0.67288E+02          0.47567E+01
         0.67388E+02          0.47429E+01
         0.67488E+02          0.47292E+01
         0.67588E+02          0.47155E+01
         0.67688E+02          0.47019E+01
         0.67788E+02          0.46883E+01
         0.67888E+02          0.46748E+01
         0.67988E+02          0.46614E+01
         0.68088E+02          0.46479E+01
         0.68188E+02          0.46346E+01
         0.68288E+02          0.46212E+01
         0.68388E+02          0.46080E+01
         0.68488E+02          0.45947E+01
         0.68588E+02          0.45815E+01
         0.68688E+02          0.45684E+01
         0.68788E+02          0.45553E+01
         0.68888E+02          0.45423E+01
         0.68988E+02          0.45292E+01
         0.69088E+02          0.45163E+01
         0.69188E+02          0.45034E+01
         0.69288E+02          0.44905E+01
         0.69388E+02          0.44777E+01
         0.69488E+02          0.44649E+01
         0.69588E+02          0.44521E+01
         0.69688E+02          0.44394E+01
         0.69788E+02          0.44267E+01
         0.69888E+02          0.44141E+01
         0.69988E+02          0.44015E+01
         0.70088E+02          0.43890E+01
         0.70188E+02          0.43765E+01
         0.70288E+02          0.43641E+01
         0.70388E+02          0.43516E+01
         0.70488E+02          0.43393E+01
         0.70588E+02          0.43269E+01
         0.70688E+02          0.43146E+01
         0.70788E+02          0.43024E+01
         0.70888E+02          0.42902E+01
         0.70988E+02          0.42780E+01
         0.71088E+02          0.42659E+01
         0.71188E+02          0.42538E+01
         0.71288E+02          0.42417E+01
         0.71388E+02          0.42297E+01
         0.71488E+02          0.42177E+01
         0.71588E+02          0.42058E+01
         0.71688E+02          0.41939E+01
         0.71788E+02          0.41820E+01
         0.71888E+02          0.41702E+01
         0.71988E+02          0.41584E+01
         0.72088E+02          0.41466E+01
         0.72188E+02          0.41349E+01
         0.72288E+02          0.41232E+01
         0.72388E+02          0.41116E+01
         0.72488E+02          0.41000E+01
         0.72588E+02          0.40884E+01
         0.72688E+02          0.40769E+01
         0.72788E+02          0.40654E+01
         0.72888E+02          0.40539E+01
         0.72988E+02          0.40425E+01
         0.73088E+02          0.40311E+01
         0.73188E+02          0.40198E+01
         0.73288E+02          0.40085E+01
         0.73388E+02          0.39972E+01
         0.73488E+02          0.39860E+01
         0.73588E+02          0.39748E+01
         0.73688E+02          0.39636E+01
         0.73788E+02          0.39525E+01
         0.73888E+02          0.39414E+01
         0.73988E+02          0.39304E+01
         0.74088E+02          0.39193E+01
         0.74188E+02          0.39084E+01
         0.74288E+02          0.38974E+01
         0.74388E+02          0.38865E+01
         0.74488E+02          0.38756E+01
         0.74588E+02          0.38648E+01
         0.74688E+02          0.38540E+01
         0.74788E+02          0.38433E+01
         0.74888E+02          0.38325E+01
         0.74988E+02          0.38219E+01
         0.75088E+02          0.38112E+01
         0.75188E+02          0.38006E+01
         0.75288E+02          0.37900E+01
         0.75388E+02          0.37795E+01
         0.75488E+02          0.37690E+01
         0.75588E+02          0.37585E+01
         0.75688E+02          0.37481E+01
         0.75788E+02          0.37377E+01
         0.75888E+02          0.37274E+01
         0.75988E+02          0.37171E+01
         0.76088E+02          0.37068E+01
         0.76188E+02          0.36965E+01
         0.76288E+02          0.36863E+01
         0.76388E+02          0.36762E+01
         0.76488E+02          0.36661E+01
         0.76588E+02          0.36560E+01
         0.76688E+02          0.36459E+01
         0.76788E+02          0.36359E+01
         0.76888E+02          0.36259E+01
         0.76988E+02          0.36160E+01
         0.77088E+02          0.36061E+01
         0.77188E+02          0.35962E+01
         0.77288E+02          0.35864E+01
         0.77388E+02          0.35766E+01
         0.77488E+02          0.35668E+01
         0.77588E+02          0.35571E+01
         0.77688E+02          0.35474E+01
         0.77788E+02          0.35377E+01
         0.77888E+02          0.35281E+01
         0.77988E+02          0.35186E+01
         0.78088E+02          0.35090E+01
         0.78188E+02          0.34995E+01
         0.78288E+02          0.34900E+01
         0.78388E+02          0.34806E+01
         0.78488E+02          0.34712E+01
         0.78588E+02          0.34619E+01
         0.78688E+02          0.34525E+01
         0.78788E+02          0.34432E+01
         0.78888E+02          0.34340E+01
         0.78988E+02          0.34248E+01
         0.79088E+02          0.34156E+01
         0.79188E+02          0.34064E+01
         0.79288E+02          0.33973E+01
         0.79388E+02          0.33882E+01
         0.79488E+02          0.33792E+01
         0.79588E+02          0.33702E+01
         0.79688E+02          0.33612E+01
         0.79788E+02          0.33522E+01
         0.79888E+02          0.33433E+01
         0.79988E+02          0.33344E+01
         0.80088E+02          0.33256E+01
         0.80188E+02          0.33168E+01
         0.80288E+02          0.33080E+01
         0.80388E+02          0.32992E+01
         0.80488E+02          0.32905E+01
         0.80588E+02          0.32818E+01
         0.80688E+02          0.32732E+01
         0.80788E+02          0.32645E+01
         0.80888E+02          0.32559E+01
         0.80988E+02          0.32473E+01
         0.81088E+02          0.32388E+01
         0.81188E+02          0.32303E+01
         0.81288E+02          0.32218E+01
         0.81388E+02          0.32133E+01
         0.81488E+02          0.32049E+01
         0.81588E+02          0.31965E+01
         0.81688E+02          0.31881E+01
         0.81788E+02          0.31797E+01
         0.81888E+02          0.31714E+01
