&rmt_interface_inp
   nfdm    = 18,
   delta_r = 0.08,
   lutarg  = 24,
   lunp1   = 667,
   n_symmetries = 4,
/
&swintfin                 ! used by SW_INTERF (see docs/swinterf)
  name = 'e⁻ + H₂O⁺',
  mgvn = 0,               ! symmetry, 0 = A1, as in CONGEN
  stot = 1,               ! spin multiplicity 2*S+1
  ntarg = 3,              ! number of target states, max. 16
  idtarg = 2,1,3,         ! mapping of target states from order by target congen inputs to energy order as in unit LUTARG = 24 (output of denprop)
  rmatr = 15,             ! R-matrix radius
  ismax = 2,              ! maximum multipole to be retained in expansion of long range potentials
  ukrmolp_ints = .true.,  ! true if you run UKRmol+ suite, false for old version of code
  nciset = 1,
/
&swintfin                 ! used by SW_INTERF (see docs/swinterf)
  name = 'e⁻ + H₂O⁺',
  mgvn = 1,               ! symmetry, 0 = A1, as in CONGEN
  stot = 1,               ! spin multiplicity 2*S+1
  ntarg = 3,              ! number of target states, max. 16
  idtarg = 2,1,3,         ! mapping of target states from order by target congen inputs to energy order as in unit LUTARG = 24 (output of denprop)
  rmatr = 15,             ! R-matrix radius
  ismax = 2,              ! maximum multipole to be retained in expansion of long range potentials
  ukrmolp_ints = .true.,  ! true if you run UKRmol+ suite, false for old version of code
  nciset = 2,
/
&swintfin                 ! used by SW_INTERF (see docs/swinterf)
  name = 'e⁻ + H₂O⁺',
  mgvn = 2,               ! symmetry, 0 = A1, as in CONGEN
  stot = 1,               ! spin multiplicity 2*S+1
  ntarg = 3,              ! number of target states, max. 16
  idtarg = 2,1,3,         ! mapping of target states from order by target congen inputs to energy order as in unit LUTARG = 24 (output of denprop)
  rmatr = 15,             ! R-matrix radius
  ismax = 2,              ! maximum multipole to be retained in expansion of long range potentials
  ukrmolp_ints = .true.,  ! true if you run UKRmol+ suite, false for old version of code
  nciset = 3,
/
&swintfin                 ! used by SW_INTERF (see docs/swinterf)
  name = 'e⁻ + H₂O⁺',
  mgvn = 3,               ! symmetry, 0 = A1, as in CONGEN
  stot = 1,               ! spin multiplicity 2*S+1
  ntarg = 3,              ! number of target states, max. 16
  idtarg = 2,1,3,         ! mapping of target states from order by target congen inputs to energy order as in unit LUTARG = 24 (output of denprop)
  rmatr = 15,             ! R-matrix radius
  ismax = 2,              ! maximum multipole to be retained in expansion of long range potentials
  ukrmolp_ints = .true.,  ! true if you run UKRmol+ suite, false for old version of code
  nciset = 4,
/
