&input
  name = 'e + H2O2 - Transition Moments',
  ipol = 0,                     ! controls calculation of dipole polarizabilities, 0 = no calculation
  nftg  = 25,                  ! (N+1)-electron eigenstate unit for all symmetries
  ntgt = 2,            ! number of CSF expansions used, this is the number of different output files to be read
  nftsor = 70,71,        ! unit numbers with output from CONGEN
  ntgtf = 1,2,          ! defines the set number, on unit NFTG where the CI vectors for this symmetry are to be found.
  ntgtl = 0,0,          ! defines the sequence number, within the set specified by NTGTF, of the last CI vector to be used
  numtgt = 1,1,        ! number of target states per symmetry (only non-zero values)
  npflg(9) = 1,                 ! prints computed moments
  zlast = .true.,               ! when set to .true. identifies that this card deck is the last in the stack of &INPUT decks.
  ukrmolp_ints = .true.,      ! true if you run UKRmol+ suite, false for old version of code
  nftmt = 667,                  ! output file unit
/
